baseball
…
clean_pitch_data %>%
  count(pitch_type, events) %>%
  group_by(pitch_type) %>%
  mutate(prop = n / sum(n)) %>%
  arrange(pitch_type, desc(prop))

# A tibble: 71 × 4
# Groups:   pitch_type [9]
   pitch_type events                      n    prop
   <chr>      <chr>                   <int>   <dbl>
 1 CH         hit_into_play            1947 0.781  
 2 CH         swinging_strike           293 0.118  
 3 CH         ball                      113 0.0453 
 4 CH         called_strike              53 0.0213 
 5 CH         swinging_strike_blocked    31 0.0124 
 6 CH         blocked_ball               24 0.00963
 7 CH         foul_tip                   21 0.00842
 8 CH         hit_by_pitch               11 0.00441
 9 CU         hit_into_play             717 0.621  
10 CU         swinging_strike           201 0.174  
# ℹ 61 more rows

clean_pitch_data %>%
  count(pitch_type, description) %>%
  group_by(pitch_type) %>%
  mutate(prop = n / sum(n)) %>%
  arrange(pitch_type, desc(prop))

# A tibble: 71 × 4
# Groups:   pitch_type [9]
   pitch_type description                 n    prop
   <chr>      <chr>                   <int>   <dbl>
 1 CH         hit_into_play            1947 0.781  
 2 CH         swinging_strike           293 0.118  
 3 CH         ball                      113 0.0453 
 4 CH         called_strike              53 0.0213 
 5 CH         swinging_strike_blocked    31 0.0124 
 6 CH         blocked_ball               24 0.00963
 7 CH         foul_tip                   21 0.00842
 8 CH         hit_by_pitch               11 0.00441
 9 CU         hit_into_play             717 0.621  
10 CU         swinging_strike           201 0.174  
# ℹ 61 more rows
…
